<svg width="962" height="312" viewBox="0 0 962 312" fill="none" xmlns="http://www.w3.org/2000/svg">
<path d="M9.53613 107.425C14.707 107.425 17.7832 103.162 17.7832 96.3945C17.7832 89.627 14.6777 85.4375 9.53613 85.4375C4.37988 85.4375 1.25977 89.6562 1.25977 96.4092C1.25977 103.191 4.35059 107.425 9.53613 107.425ZM9.53613 104.334C6.72363 104.334 5.06836 101.375 5.06836 96.3945C5.06836 91.502 6.75293 88.5283 9.53613 88.5283C12.3047 88.5283 13.96 91.4727 13.96 96.4092C13.96 101.39 12.334 104.334 9.53613 104.334ZM20.2002 92.1318V92.1758H23.7451V92.1172C23.7451 90.0225 25.3857 88.4697 27.583 88.4697C29.6777 88.4697 31.2451 89.8613 31.2451 91.6045C31.2451 93.1865 30.5859 94.2705 28.1836 96.7168L20.4053 104.451V107H35.2588V103.909H25.4443V103.836L30.6738 98.665C33.4424 95.8672 34.9365 93.9629 34.9365 91.4434C34.9365 88.0156 31.9189 85.4375 27.7002 85.4375C23.3203 85.4375 20.2002 88.2354 20.2002 92.1318ZM40.5762 107.161C41.748 107.161 42.6709 106.238 42.6709 105.052C42.6709 103.88 41.748 102.942 40.5762 102.942C39.3896 102.942 38.4668 103.88 38.4668 105.052C38.4668 106.238 39.3896 107.161 40.5762 107.161ZM59.751 107V89.0557H66.0645V85.8623H49.6582V89.0557H55.9863V107H59.751ZM71.5283 107.308C76.084 107.308 79.043 104.275 79.043 99.2363C79.043 94.2119 76.0547 91.1504 71.5283 91.1504C67.002 91.1504 64.0137 94.2266 64.0137 99.2363C64.0137 104.275 66.9727 107.308 71.5283 107.308ZM71.5283 104.422C69.2139 104.422 67.7197 102.547 67.7197 99.2363C67.7197 95.9404 69.2285 94.0508 71.5283 94.0508C73.8428 94.0508 75.3369 95.9404 75.3369 99.2363C75.3369 102.547 73.8428 104.422 71.5283 104.422ZM89.9121 91.209C87.6562 91.209 85.8984 92.3516 85.0195 94.1533H84.9463V91.4727H81.3867V112.112H85.0342V104.422H85.1074C85.957 106.165 87.7148 107.249 89.9707 107.249C93.8672 107.249 96.3574 104.188 96.3574 99.2363C96.3574 94.2705 93.8525 91.209 89.9121 91.209ZM88.7988 104.261C86.5283 104.261 85.0195 102.283 85.0049 99.2363C85.0195 96.2188 86.5283 94.2119 88.7988 94.2119C91.1572 94.2119 92.6221 96.1748 92.6221 99.2363C92.6221 102.312 91.1572 104.261 88.7988 104.261ZM98.4229 95.9258C98.4229 98.167 99.873 99.6611 102.744 100.335L105.571 100.994C107.08 101.375 107.651 101.858 107.651 102.767C107.651 103.924 106.553 104.642 104.78 104.642C102.935 104.642 101.836 103.851 101.616 102.43H98.0273C98.2764 105.374 100.752 107.308 104.648 107.308C108.574 107.308 111.284 105.33 111.284 102.4C111.284 100.101 110.068 98.8994 106.963 98.167L104.194 97.5518C102.671 97.1855 101.968 96.5996 101.968 95.7207C101.968 94.5928 103.022 93.8311 104.634 93.8311C106.333 93.8311 107.402 94.6514 107.52 95.9844H110.918C110.83 93.1133 108.354 91.1504 104.707 91.1504C100.928 91.1504 98.4229 93.084 98.4229 95.9258ZM113.716 107H117.363V98.0791C117.363 95.7939 118.696 94.2705 120.894 94.2705C123.003 94.2705 124.087 95.5742 124.087 97.7422V107H127.734V96.9951C127.734 93.4355 125.728 91.1797 122.3 91.1797C119.941 91.1797 118.228 92.249 117.393 94.1387H117.319V85.8623H113.716V107ZM130.752 107H134.399V91.4727H130.752V107ZM132.568 89.4365C133.711 89.4365 134.604 88.5576 134.604 87.459C134.604 86.3457 133.711 85.4668 132.568 85.4668C131.44 85.4668 130.547 86.3457 130.547 87.459C130.547 88.5576 131.44 89.4365 132.568 89.4365ZM137.461 107H141.108V97.9619C141.108 95.7793 142.354 94.4463 144.419 94.4463C145.034 94.4463 145.591 94.5342 145.898 94.6514V91.3555C145.635 91.2969 145.225 91.209 144.756 91.209C142.925 91.209 141.562 92.293 141.035 94.1826H140.962V91.4727H137.461V107ZM147.861 107H151.509V91.4727H147.861V107ZM149.678 89.4365C150.82 89.4365 151.714 88.5576 151.714 87.459C151.714 86.3457 150.82 85.4668 149.678 85.4668C148.55 85.4668 147.656 86.3457 147.656 87.459C147.656 88.5576 148.55 89.4365 149.678 89.4365ZM160.386 91.209C156.431 91.209 153.926 94.2998 153.926 99.2217C153.926 104.158 156.416 107.249 160.312 107.249C162.554 107.249 164.37 106.106 165.176 104.378H165.264V112.112H168.911V91.4727H165.337V94.1533H165.264C164.385 92.3809 162.642 91.209 160.386 91.209ZM161.426 104.261C159.097 104.261 157.661 102.342 157.661 99.2363C157.661 96.1309 159.097 94.2119 161.426 94.2119C163.726 94.2119 165.264 96.1895 165.264 99.2363C165.264 102.298 163.726 104.261 161.426 104.261ZM171.987 107H175.635V85.8623H171.987V107ZM184.409 104.495C182.827 104.495 181.772 103.689 181.772 102.415C181.772 101.185 182.783 100.394 184.541 100.276L188.13 100.057V101.243C188.13 103.118 186.475 104.495 184.409 104.495ZM183.311 107.249C185.303 107.249 187.251 106.209 188.145 104.524H188.218V107H191.733V96.3066C191.733 93.1865 189.229 91.1504 185.376 91.1504C181.421 91.1504 178.945 93.2305 178.784 96.1309H182.168C182.402 94.8418 183.501 94.0068 185.229 94.0068C187.031 94.0068 188.13 94.9443 188.13 96.5703V97.6836L184.028 97.918C180.249 98.1523 178.125 99.8076 178.125 102.562C178.125 105.359 180.308 107.249 183.311 107.249ZM194.678 107H198.325V97.9619C198.325 95.7793 199.57 94.4463 201.636 94.4463C202.251 94.4463 202.808 94.5342 203.115 94.6514V91.3555C202.852 91.2969 202.441 91.209 201.973 91.209C200.142 91.209 198.779 92.293 198.252 94.1826H198.179V91.4727H194.678V107ZM204.99 107H208.638V98.0059C208.638 95.7793 209.971 94.2705 212.065 94.2705C214.146 94.2705 215.171 95.501 215.171 97.6982V107H218.818V96.9658C218.818 93.377 216.87 91.1797 213.442 91.1797C211.055 91.1797 209.399 92.293 208.564 94.1387H208.491V91.4727H204.99V107ZM221.836 107H225.483V91.4727H221.836V107ZM223.652 89.4365C224.795 89.4365 225.688 88.5576 225.688 87.459C225.688 86.3457 224.795 85.4668 223.652 85.4668C222.524 85.4668 221.631 86.3457 221.631 87.459C221.631 88.5576 222.524 89.4365 223.652 89.4365ZM243.237 107.249C247.163 107.249 249.639 104.202 249.639 99.2363C249.639 94.2705 247.148 91.209 243.237 91.209C241.04 91.209 239.268 92.3223 238.389 94.1387H238.301V85.8623H234.653V107H238.228V104.349H238.301C239.209 106.15 240.952 107.249 243.237 107.249ZM242.109 94.2119C244.438 94.2119 245.903 96.1602 245.903 99.2363C245.903 102.327 244.453 104.261 242.109 104.261C239.854 104.261 238.286 102.283 238.286 99.2363C238.286 96.2188 239.854 94.2119 242.109 94.2119ZM257.681 104.495C256.099 104.495 255.044 103.689 255.044 102.415C255.044 101.185 256.055 100.394 257.812 100.276L261.401 100.057V101.243C261.401 103.118 259.746 104.495 257.681 104.495ZM256.582 107.249C258.574 107.249 260.522 106.209 261.416 104.524H261.489V107H265.005V96.3066C265.005 93.1865 262.5 91.1504 258.647 91.1504C254.692 91.1504 252.217 93.2305 252.056 96.1309H255.439C255.674 94.8418 256.772 94.0068 258.501 94.0068C260.303 94.0068 261.401 94.9443 261.401 96.5703V97.6836L257.3 97.918C253.521 98.1523 251.396 99.8076 251.396 102.562C251.396 105.359 253.579 107.249 256.582 107.249ZM271.685 91.4727H268.037V107.674C268.037 109.109 267.466 109.651 265.957 109.651C265.869 109.651 265.547 109.651 265.474 109.637V112.42C265.605 112.435 266.162 112.449 266.382 112.449C269.912 112.449 271.685 110.882 271.685 107.732V91.4727ZM269.854 89.4365C270.996 89.4365 271.89 88.5576 271.89 87.459C271.89 86.3457 270.996 85.4668 269.854 85.4668C268.726 85.4668 267.832 86.3457 267.832 87.459C267.832 88.5576 268.726 89.4365 269.854 89.4365ZM280.415 104.495C278.833 104.495 277.778 103.689 277.778 102.415C277.778 101.185 278.789 100.394 280.547 100.276L284.136 100.057V101.243C284.136 103.118 282.48 104.495 280.415 104.495ZM279.316 107.249C281.309 107.249 283.257 106.209 284.15 104.524H284.224V107H287.739V96.3066C287.739 93.1865 285.234 91.1504 281.382 91.1504C277.427 91.1504 274.951 93.2305 274.79 96.1309H278.174C278.408 94.8418 279.507 94.0068 281.235 94.0068C283.037 94.0068 284.136 94.9443 284.136 96.5703V97.6836L280.034 97.918C276.255 98.1523 274.131 99.8076 274.131 102.562C274.131 105.359 276.313 107.249 279.316 107.249ZM290.684 107H294.331V97.9619C294.331 95.7793 295.576 94.4463 297.642 94.4463C298.257 94.4463 298.813 94.5342 299.121 94.6514V91.3555C298.857 91.2969 298.447 91.209 297.979 91.209C296.147 91.209 294.785 92.293 294.258 94.1826H294.185V91.4727H290.684V107ZM301.084 107H304.731V91.4727H301.084V107ZM302.9 89.4365C304.043 89.4365 304.937 88.5576 304.937 87.459C304.937 86.3457 304.043 85.4668 302.9 85.4668C301.772 85.4668 300.879 86.3457 300.879 87.459C300.879 88.5576 301.772 89.4365 302.9 89.4365ZM307.515 95.9258C307.515 98.167 308.965 99.6611 311.836 100.335L314.663 100.994C316.172 101.375 316.743 101.858 316.743 102.767C316.743 103.924 315.645 104.642 313.872 104.642C312.026 104.642 310.928 103.851 310.708 102.43H307.119C307.368 105.374 309.844 107.308 313.74 107.308C317.666 107.308 320.376 105.33 320.376 102.4C320.376 100.101 319.16 98.8994 316.055 98.167L313.286 97.5518C311.763 97.1855 311.06 96.5996 311.06 95.7207C311.06 94.5928 312.114 93.8311 313.726 93.8311C315.425 93.8311 316.494 94.6514 316.611 95.9844H320.01C319.922 93.1133 317.446 91.1504 313.799 91.1504C310.02 91.1504 307.515 93.084 307.515 95.9258ZM322.808 107H326.455V98.0791C326.455 95.7939 327.788 94.2705 329.985 94.2705C332.095 94.2705 333.179 95.5742 333.179 97.7422V107H336.826V96.9951C336.826 93.4355 334.819 91.1797 331.392 91.1797C329.033 91.1797 327.319 92.249 326.484 94.1387H326.411V85.8623H322.808V107ZM8.36426 143.308C12.9199 143.308 15.8789 140.275 15.8789 135.236C15.8789 130.212 12.8906 127.15 8.36426 127.15C3.83789 127.15 0.849609 130.227 0.849609 135.236C0.849609 140.275 3.80859 143.308 8.36426 143.308ZM8.36426 140.422C6.0498 140.422 4.55566 138.547 4.55566 135.236C4.55566 131.94 6.06445 130.051 8.36426 130.051C10.6787 130.051 12.1729 131.94 12.1729 135.236C12.1729 138.547 10.6787 140.422 8.36426 140.422ZM18.2227 143H21.8701V133.962C21.8701 131.779 23.1152 130.446 25.1807 130.446C25.7959 130.446 26.3525 130.534 26.6602 130.651V127.355C26.3965 127.297 25.9863 127.209 25.5176 127.209C23.6865 127.209 22.3242 128.293 21.7969 130.183H21.7236V127.473H18.2227V143ZM33.7646 127.209C29.8096 127.209 27.3047 130.3 27.3047 135.222C27.3047 140.158 29.7949 143.249 33.6914 143.249C35.9326 143.249 37.749 142.106 38.5547 140.378H38.6426V148.112H42.29V127.473H38.7158V130.153H38.6426C37.7637 128.381 36.0205 127.209 33.7646 127.209ZM34.8047 140.261C32.4756 140.261 31.04 138.342 31.04 135.236C31.04 132.131 32.4756 130.212 34.8047 130.212C37.1045 130.212 38.6426 132.189 38.6426 135.236C38.6426 138.298 37.1045 140.261 34.8047 140.261ZM50.9326 140.495C49.3506 140.495 48.2959 139.689 48.2959 138.415C48.2959 137.185 49.3066 136.394 51.0645 136.276L54.6533 136.057V137.243C54.6533 139.118 52.998 140.495 50.9326 140.495ZM49.834 143.249C51.8262 143.249 53.7744 142.209 54.668 140.524H54.7412V143H58.2568V132.307C58.2568 129.187 55.752 127.15 51.8994 127.15C47.9443 127.15 45.4688 129.23 45.3076 132.131H48.6914C48.9258 130.842 50.0244 130.007 51.7529 130.007C53.5547 130.007 54.6533 130.944 54.6533 132.57V133.684L50.5518 133.918C46.7725 134.152 44.6484 135.808 44.6484 138.562C44.6484 141.359 46.8311 143.249 49.834 143.249ZM61.3037 143H64.9512V121.862H61.3037V143ZM68.1445 143H71.792V127.473H68.1445V143ZM69.9609 125.437C71.1035 125.437 71.9971 124.558 71.9971 123.459C71.9971 122.346 71.1035 121.467 69.9609 121.467C68.833 121.467 67.9395 122.346 67.9395 123.459C67.9395 124.558 68.833 125.437 69.9609 125.437ZM87.7295 143.308C92.2852 143.308 95.2441 140.275 95.2441 135.236C95.2441 130.212 92.2559 127.15 87.7295 127.15C83.2031 127.15 80.2148 130.227 80.2148 135.236C80.2148 140.275 83.1738 143.308 87.7295 143.308ZM87.7295 140.422C85.415 140.422 83.9209 138.547 83.9209 135.236C83.9209 131.94 85.4297 130.051 87.7295 130.051C90.0439 130.051 91.5381 131.94 91.5381 135.236C91.5381 138.547 90.0439 140.422 87.7295 140.422ZM101.001 129.816V121.862H97.8223V129.816H101.001ZM104.238 143H107.886V133.962C107.886 131.779 109.131 130.446 111.196 130.446C111.812 130.446 112.368 130.534 112.676 130.651V127.355C112.412 127.297 112.002 127.209 111.533 127.209C109.702 127.209 108.34 128.293 107.812 130.183H107.739V127.473H104.238V143ZM120.82 140.114C118.521 140.114 117.056 138.269 117.056 135.192C117.056 132.146 118.521 130.212 120.82 130.212C123.149 130.212 124.658 132.175 124.658 135.192C124.658 138.225 123.149 140.114 120.82 140.114ZM120.806 148.859C125.332 148.859 128.306 146.457 128.306 142.751V127.473H124.731V130.139H124.673C123.779 128.352 121.992 127.209 119.78 127.209C115.811 127.209 113.32 130.271 113.32 135.178C113.32 140.012 115.869 143.015 119.707 143.015C121.934 143.015 123.765 141.901 124.57 140.231H124.658V142.854C124.658 144.831 123.296 146.164 120.923 146.164C119.194 146.164 117.861 145.358 117.466 144.172H113.848C114.214 146.896 116.968 148.859 120.806 148.859ZM136.948 140.495C135.366 140.495 134.312 139.689 134.312 138.415C134.312 137.185 135.322 136.394 137.08 136.276L140.669 136.057V137.243C140.669 139.118 139.014 140.495 136.948 140.495ZM135.85 143.249C137.842 143.249 139.79 142.209 140.684 140.524H140.757V143H144.272V132.307C144.272 129.187 141.768 127.15 137.915 127.15C133.96 127.15 131.484 129.23 131.323 132.131H134.707C134.941 130.842 136.04 130.007 137.769 130.007C139.57 130.007 140.669 130.944 140.669 132.57V133.684L136.567 133.918C132.788 134.152 130.664 135.808 130.664 138.562C130.664 141.359 132.847 143.249 135.85 143.249ZM147.217 143H150.864V134.006C150.864 131.779 152.197 130.271 154.292 130.271C156.372 130.271 157.397 131.501 157.397 133.698V143H161.045V132.966C161.045 129.377 159.097 127.18 155.669 127.18C153.281 127.18 151.626 128.293 150.791 130.139H150.718V127.473H147.217V143ZM164.062 143H167.71V127.473H164.062V143ZM165.879 125.437C167.021 125.437 167.915 124.558 167.915 123.459C167.915 122.346 167.021 121.467 165.879 121.467C164.751 121.467 163.857 122.346 163.857 123.459C163.857 124.558 164.751 125.437 165.879 125.437ZM170.771 143H174.419V134.006C174.419 131.779 175.752 130.271 177.847 130.271C179.927 130.271 180.952 131.501 180.952 133.698V143H184.6V132.966C184.6 129.377 182.651 127.18 179.224 127.18C176.836 127.18 175.181 128.293 174.346 130.139H174.272V127.473H170.771V143ZM194.385 140.114C192.085 140.114 190.62 138.269 190.62 135.192C190.62 132.146 192.085 130.212 194.385 130.212C196.714 130.212 198.223 132.175 198.223 135.192C198.223 138.225 196.714 140.114 194.385 140.114ZM194.37 148.859C198.896 148.859 201.87 146.457 201.87 142.751V127.473H198.296V130.139H198.237C197.344 128.352 195.557 127.209 193.345 127.209C189.375 127.209 186.885 130.271 186.885 135.178C186.885 140.012 189.434 143.015 193.271 143.015C195.498 143.015 197.329 141.901 198.135 140.231H198.223V142.854C198.223 144.831 196.86 146.164 194.487 146.164C192.759 146.164 191.426 145.358 191.03 144.172H187.412C187.778 146.896 190.532 148.859 194.37 148.859ZM207.393 143.161C208.564 143.161 209.487 142.238 209.487 141.052C209.487 139.88 208.564 138.942 207.393 138.942C206.206 138.942 205.283 139.88 205.283 141.052C205.283 142.238 206.206 143.161 207.393 143.161Z" fill="#343434"/>
<path d="M1.36719 172.908V187H6.10352C10.293 187 12.7539 184.393 12.7539 179.949C12.7539 175.516 10.2832 172.908 6.10352 172.908H1.36719ZM3.125 174.49H5.98633C9.18945 174.49 10.957 176.443 10.957 179.969C10.957 183.465 9.17969 185.418 5.98633 185.418H3.125V174.49ZM18.0273 185.73C16.8066 185.73 15.9961 185.096 15.9961 184.129C15.9961 183.172 16.7773 182.566 18.1445 182.479L20.8594 182.312V183.143C20.8594 184.607 19.6289 185.73 18.0273 185.73ZM17.6465 187.176C19.0137 187.176 20.3027 186.414 20.9082 185.252H20.9473V187H22.5586V179.979C22.5586 177.957 21.0547 176.668 18.6719 176.668C16.2695 176.668 14.7656 178.016 14.6484 179.773H16.2891C16.5039 178.777 17.3242 178.162 18.6328 178.162C20.0391 178.162 20.8594 178.904 20.8594 180.145V180.994L17.9492 181.16C15.6055 181.297 14.2676 182.391 14.2676 184.129C14.2676 185.955 15.625 187.176 17.6465 187.176ZM24.541 179.646C24.541 181.033 25.4199 181.951 27.207 182.41L28.9941 182.869C30.1367 183.172 30.5566 183.562 30.5566 184.285C30.5566 185.203 29.707 185.789 28.3301 185.789C26.9531 185.789 26.1523 185.223 25.9668 184.168H24.2676C24.4434 185.965 25.9961 187.176 28.2227 187.176C30.5957 187.176 32.2656 185.926 32.2656 184.158C32.2656 182.664 31.5234 181.922 29.4727 181.404L27.9004 181.023C26.748 180.73 26.2109 180.262 26.2109 179.559C26.2109 178.67 27.0312 178.055 28.2715 178.055C29.5215 178.055 30.3125 178.66 30.4297 179.637H32.0508C31.9727 177.918 30.4297 176.668 28.3301 176.668C26.0938 176.668 24.541 177.908 24.541 179.646ZM34.5801 174.393V176.844H33.0664V178.24H34.5801V184.363C34.5801 186.316 35.3027 187.078 37.168 187.078C37.5684 187.078 38.0371 187.049 38.2422 187V185.574C38.125 185.594 37.7344 185.623 37.5391 185.623C36.6699 185.623 36.2793 185.203 36.2793 184.275V178.24H38.252V176.844H36.2793V174.393H34.5801ZM48.4082 176.844H46.709V182.811C46.709 184.539 45.7129 185.672 44.0625 185.672C42.4902 185.672 41.7188 184.783 41.7188 183.133V176.844H40.0195V183.436C40.0195 185.74 41.3184 187.176 43.5352 187.176C45.0977 187.176 46.1523 186.521 46.7578 185.35H46.7969V187H48.4082V176.844ZM50.6152 187H52.3145V180.672C52.3145 179.236 53.1738 178.289 54.4922 178.289C54.9023 178.289 55.2637 178.338 55.4004 178.387V176.736C55.2637 176.717 55.0098 176.668 54.7168 176.668C53.5254 176.668 52.5879 177.381 52.2559 178.504H52.2168V176.844H50.6152V187ZM56.875 187H58.5742V172.908H56.875V187ZM64.2188 185.73C62.998 185.73 62.1875 185.096 62.1875 184.129C62.1875 183.172 62.9688 182.566 64.3359 182.479L67.0508 182.312V183.143C67.0508 184.607 65.8203 185.73 64.2188 185.73ZM63.8379 187.176C65.2051 187.176 66.4941 186.414 67.0996 185.252H67.1387V187H68.75V179.979C68.75 177.957 67.2461 176.668 64.8633 176.668C62.4609 176.668 60.957 178.016 60.8398 179.773H62.4805C62.6953 178.777 63.5156 178.162 64.8242 178.162C66.2305 178.162 67.0508 178.904 67.0508 180.145V180.994L64.1406 181.16C61.7969 181.297 60.459 182.391 60.459 184.129C60.459 185.955 61.8164 187.176 63.8379 187.176ZM70.7324 179.646C70.7324 181.033 71.6113 181.951 73.3984 182.41L75.1855 182.869C76.3281 183.172 76.748 183.562 76.748 184.285C76.748 185.203 75.8984 185.789 74.5215 185.789C73.1445 185.789 72.3438 185.223 72.1582 184.168H70.459C70.6348 185.965 72.1875 187.176 74.4141 187.176C76.7871 187.176 78.457 185.926 78.457 184.158C78.457 182.664 77.7148 181.922 75.6641 181.404L74.0918 181.023C72.9395 180.73 72.4023 180.262 72.4023 179.559C72.4023 178.67 73.2227 178.055 74.4629 178.055C75.7129 178.055 76.5039 178.66 76.6211 179.637H78.2422C78.1641 177.918 76.6211 176.668 74.5215 176.668C72.2852 176.668 70.7324 177.908 70.7324 179.646ZM80.3125 187H82.0117V181.082C82.0117 179.324 83.0566 178.172 84.7461 178.172C86.3379 178.172 87.1484 179.139 87.1484 180.75V187H88.8477V180.438C88.8477 178.172 87.5 176.668 85.2734 176.668C83.7305 176.668 82.6172 177.332 82.0508 178.465H82.0117V172.908H80.3125V187ZM98.457 185.73C97.2363 185.73 96.4258 185.096 96.4258 184.129C96.4258 183.172 97.207 182.566 98.5742 182.479L101.289 182.312V183.143C101.289 184.607 100.059 185.73 98.457 185.73ZM98.0762 187.176C99.4434 187.176 100.732 186.414 101.338 185.252H101.377V187H102.988V179.979C102.988 177.957 101.484 176.668 99.1016 176.668C96.6992 176.668 95.1953 178.016 95.0781 179.773H96.7188C96.9336 178.777 97.7539 178.162 99.0625 178.162C100.469 178.162 101.289 178.904 101.289 180.145V180.994L98.3789 181.16C96.0352 181.297 94.6973 182.391 94.6973 184.129C94.6973 185.955 96.0547 187.176 98.0762 187.176ZM105.234 187H106.934V172.908H105.234V187ZM113.359 185.584C111.611 185.584 110.469 184.158 110.469 181.883C110.469 179.607 111.611 178.162 113.359 178.162C115.127 178.162 116.309 179.646 116.309 181.883C116.309 184.119 115.127 185.584 113.359 185.584ZM113.418 190.828C116.221 190.828 118.008 189.217 118.008 186.795V176.844H116.387V178.553H116.357C115.684 177.371 114.492 176.668 113.057 176.668C110.43 176.668 108.73 178.699 108.73 181.883C108.73 185.037 110.43 187.078 113.018 187.078C114.443 187.078 115.645 186.355 116.27 185.252H116.309V186.854C116.309 188.367 115.244 189.383 113.486 189.383C112.217 189.383 111.211 188.768 110.879 187.84H109.131C109.414 189.568 111.182 190.828 113.418 190.828ZM124.434 187.176C127.236 187.176 129.131 185.154 129.131 181.922C129.131 178.68 127.236 176.668 124.434 176.668C121.621 176.668 119.727 178.68 119.727 181.922C119.727 185.154 121.621 187.176 124.434 187.176ZM124.434 185.682C122.637 185.682 121.455 184.314 121.455 181.922C121.455 179.529 122.637 178.162 124.434 178.162C126.23 178.162 127.402 179.529 127.402 181.922C127.402 184.314 126.23 185.682 124.434 185.682ZM130.85 187H132.549V180.672C132.549 179.236 133.408 178.289 134.727 178.289C135.137 178.289 135.498 178.338 135.635 178.387V176.736C135.498 176.717 135.244 176.668 134.951 176.668C133.76 176.668 132.822 177.381 132.49 178.504H132.451V176.844H130.85V187ZM137.109 187H138.809V176.844H137.109V187ZM137.959 175.135C138.545 175.135 139.023 174.656 139.023 174.08C139.023 173.494 138.545 173.025 137.959 173.025C137.383 173.025 136.904 173.494 136.904 174.08C136.904 174.656 137.383 175.135 137.959 175.135ZM141.65 174.393V176.844H140.137V178.24H141.65V184.363C141.65 186.316 142.373 187.078 144.238 187.078C144.639 187.078 145.107 187.049 145.312 187V185.574C145.195 185.594 144.805 185.623 144.609 185.623C143.74 185.623 143.35 185.203 143.35 184.275V178.24H145.322V176.844H143.35V174.393H141.65ZM147.139 187H148.838V180.633C148.838 179.227 149.814 178.172 151.162 178.172C152.422 178.172 153.242 178.973 153.242 180.193V187H154.941V180.545C154.941 179.168 155.889 178.172 157.236 178.172C158.574 178.172 159.346 178.992 159.346 180.379V187H161.045V179.988C161.045 177.977 159.746 176.668 157.734 176.668C156.309 176.668 155.117 177.391 154.551 178.602H154.512C154.072 177.371 153.047 176.668 151.66 176.668C150.293 176.668 149.258 177.391 148.779 178.465H148.74V176.844H147.139V187ZM163.301 187H165V172.908H163.301V187ZM170.645 185.73C169.424 185.73 168.613 185.096 168.613 184.129C168.613 183.172 169.395 182.566 170.762 182.479L173.477 182.312V183.143C173.477 184.607 172.246 185.73 170.645 185.73ZM170.264 187.176C171.631 187.176 172.92 186.414 173.525 185.252H173.564V187H175.176V179.979C175.176 177.957 173.672 176.668 171.289 176.668C168.887 176.668 167.383 178.016 167.266 179.773H168.906C169.121 178.777 169.941 178.162 171.25 178.162C172.656 178.162 173.477 178.904 173.477 180.145V180.994L170.566 181.16C168.223 181.297 166.885 182.391 166.885 184.129C166.885 185.955 168.242 187.176 170.264 187.176ZM177.334 187H179.033V180.672C179.033 179.236 179.893 178.289 181.211 178.289C181.621 178.289 181.982 178.338 182.119 178.387V176.736C181.982 176.717 181.729 176.668 181.436 176.668C180.244 176.668 179.307 177.381 178.975 178.504H178.936V176.844H177.334V187ZM183.594 187H185.293V176.844H183.594V187ZM184.443 175.135C185.029 175.135 185.508 174.656 185.508 174.08C185.508 173.494 185.029 173.025 184.443 173.025C183.867 173.025 183.389 173.494 183.389 174.08C183.389 174.656 183.867 175.135 184.443 175.135ZM188.75 189.803L190.088 184.832H188.281L187.334 189.803H188.75ZM195.615 179.646C195.615 181.033 196.494 181.951 198.281 182.41L200.068 182.869C201.211 183.172 201.631 183.562 201.631 184.285C201.631 185.203 200.781 185.789 199.404 185.789C198.027 185.789 197.227 185.223 197.041 184.168H195.342C195.518 185.965 197.07 187.176 199.297 187.176C201.67 187.176 203.34 185.926 203.34 184.158C203.34 182.664 202.598 181.922 200.547 181.404L198.975 181.023C197.822 180.73 197.285 180.262 197.285 179.559C197.285 178.67 198.105 178.055 199.346 178.055C200.596 178.055 201.387 178.66 201.504 179.637H203.125C203.047 177.918 201.504 176.668 199.404 176.668C197.168 176.668 195.615 177.908 195.615 179.646ZM213.447 176.844H211.748V182.811C211.748 184.539 210.752 185.672 209.102 185.672C207.529 185.672 206.758 184.783 206.758 183.133V176.844H205.059V183.436C205.059 185.74 206.357 187.176 208.574 187.176C210.137 187.176 211.191 186.521 211.797 185.35H211.836V187H213.447V176.844ZM215.742 187H217.441V181.082C217.441 179.324 218.486 178.172 220.176 178.172C221.768 178.172 222.578 179.139 222.578 180.75V187H224.277V180.438C224.277 178.172 222.93 176.668 220.703 176.668C219.16 176.668 218.047 177.332 217.48 178.465H217.441V172.908H215.742V187ZM231.484 187.176C234.082 187.176 235.801 185.115 235.801 181.922C235.801 178.738 234.072 176.668 231.514 176.668C230.078 176.668 228.896 177.381 228.262 178.543H228.223V172.908H226.523V187H228.145V185.281H228.184C228.838 186.453 230 187.176 231.484 187.176ZM231.152 178.162C232.949 178.162 234.062 179.617 234.062 181.922C234.062 184.246 232.949 185.682 231.152 185.682C229.434 185.682 228.213 184.188 228.213 181.922C228.213 179.666 229.434 178.162 231.152 178.162ZM240.879 185.73C239.658 185.73 238.848 185.096 238.848 184.129C238.848 183.172 239.629 182.566 240.996 182.479L243.711 182.312V183.143C243.711 184.607 242.48 185.73 240.879 185.73ZM240.498 187.176C241.865 187.176 243.154 186.414 243.76 185.252H243.799V187H245.41V179.979C245.41 177.957 243.906 176.668 241.523 176.668C239.121 176.668 237.617 178.016 237.5 179.773H239.141C239.355 178.777 240.176 178.162 241.484 178.162C242.891 178.162 243.711 178.904 243.711 180.145V180.994L240.801 181.16C238.457 181.297 237.119 182.391 237.119 184.129C237.119 185.955 238.477 187.176 240.498 187.176ZM248.115 174.393V176.844H246.602V178.24H248.115V184.363C248.115 186.316 248.838 187.078 250.703 187.078C251.104 187.078 251.572 187.049 251.777 187V185.574C251.66 185.594 251.27 185.623 251.074 185.623C250.205 185.623 249.814 185.203 249.814 184.275V178.24H251.787V176.844H249.814V174.393H248.115ZM266.045 176.844H264.346V182.811C264.346 184.539 263.35 185.672 261.699 185.672C260.127 185.672 259.355 184.783 259.355 183.133V176.844H257.656V183.436C257.656 185.74 258.955 187.176 261.172 187.176C262.734 187.176 263.789 186.521 264.395 185.35H264.434V187H266.045V176.844ZM276.689 180.174C276.475 178.348 274.961 176.668 272.422 176.668C269.619 176.668 267.754 178.719 267.754 181.922C267.754 185.193 269.629 187.176 272.441 187.176C274.746 187.176 276.445 185.75 276.709 183.729H275.039C274.746 184.949 273.838 185.682 272.451 185.682C270.693 185.682 269.482 184.285 269.482 181.922C269.482 179.617 270.674 178.162 272.432 178.162C273.926 178.162 274.785 179.07 275.029 180.174H276.689ZM278.359 187H280.059V181.082C280.059 179.324 281.104 178.172 282.793 178.172C284.385 178.172 285.195 179.139 285.195 180.75V187H286.895V180.438C286.895 178.172 285.547 176.668 283.32 176.668C281.777 176.668 280.664 177.332 280.098 178.465H280.059V172.908H278.359V187ZM297.393 176.844H295.693V182.811C295.693 184.539 294.697 185.672 293.047 185.672C291.475 185.672 290.703 184.783 290.703 183.133V176.844H289.004V183.436C289.004 185.74 290.303 187.176 292.52 187.176C294.082 187.176 295.137 186.521 295.742 185.35H295.781V187H297.393V176.844ZM299.6 187H301.299V181.023C301.299 179.305 302.344 178.172 303.945 178.172C305.508 178.172 306.279 179.07 306.279 180.711V187H307.979V180.408C307.979 178.104 306.689 176.668 304.463 176.668C302.891 176.668 301.807 177.371 301.24 178.465H301.201V176.844H299.6V187ZM1.65039 198.393V200.844H0.136719V202.24H1.65039V208.363C1.65039 210.316 2.37305 211.078 4.23828 211.078C4.63867 211.078 5.10742 211.049 5.3125 211V209.574C5.19531 209.594 4.80469 209.623 4.60938 209.623C3.74023 209.623 3.34961 209.203 3.34961 208.275V202.24H5.32227V200.844H3.34961V198.393H1.65039ZM11.0547 211.176C13.8574 211.176 15.752 209.154 15.752 205.922C15.752 202.68 13.8574 200.668 11.0547 200.668C8.24219 200.668 6.34766 202.68 6.34766 205.922C6.34766 209.154 8.24219 211.176 11.0547 211.176ZM11.0547 209.682C9.25781 209.682 8.07617 208.314 8.07617 205.922C8.07617 203.529 9.25781 202.162 11.0547 202.162C12.8516 202.162 14.0234 203.529 14.0234 205.922C14.0234 208.314 12.8516 209.682 11.0547 209.682ZM22.4023 200.668C20.9277 200.668 19.7461 201.42 19.1211 202.562H19.082V200.844H17.4707V214.389H19.1699V209.35H19.209C19.8145 210.463 20.9863 211.176 22.4414 211.176C25 211.176 26.748 209.105 26.748 205.922C26.748 202.738 24.9902 200.668 22.4023 200.668ZM22.0703 209.682C20.332 209.682 19.1602 208.188 19.1602 205.922C19.1602 203.666 20.332 202.162 22.0703 202.162C23.877 202.162 25.0098 203.627 25.0098 205.922C25.0098 208.227 23.877 209.682 22.0703 209.682ZM28.291 203.646C28.291 205.033 29.1699 205.951 30.957 206.41L32.7441 206.869C33.8867 207.172 34.3066 207.562 34.3066 208.285C34.3066 209.203 33.457 209.789 32.0801 209.789C30.7031 209.789 29.9023 209.223 29.7168 208.168H28.0176C28.1934 209.965 29.7461 211.176 31.9727 211.176C34.3457 211.176 36.0156 209.926 36.0156 208.158C36.0156 206.664 35.2734 205.922 33.2227 205.404L31.6504 205.023C30.498 204.73 29.9609 204.262 29.9609 203.559C29.9609 202.67 30.7812 202.055 32.0215 202.055C33.2715 202.055 34.0625 202.66 34.1797 203.637H35.8008C35.7227 201.918 34.1797 200.668 32.0801 200.668C29.8438 200.668 28.291 201.908 28.291 203.646ZM37.8711 211H39.5703V205.082C39.5703 203.324 40.6152 202.172 42.3047 202.172C43.8965 202.172 44.707 203.139 44.707 204.75V211H46.4062V204.438C46.4062 202.172 45.0586 200.668 42.832 200.668C41.2891 200.668 40.1758 201.332 39.6094 202.465H39.5703V196.908H37.8711V211ZM48.6523 211H50.3516V200.844H48.6523V211ZM49.502 199.135C50.0879 199.135 50.5664 198.656 50.5664 198.08C50.5664 197.494 50.0879 197.025 49.502 197.025C48.9258 197.025 48.4473 197.494 48.4473 198.08C48.4473 198.656 48.9258 199.135 49.502 199.135ZM52.6465 211H54.3457V204.672C54.3457 203.236 55.2051 202.289 56.5234 202.289C56.9336 202.289 57.2949 202.338 57.4316 202.387V200.736C57.2949 200.717 57.041 200.668 56.748 200.668C55.5566 200.668 54.6191 201.381 54.2871 202.504H54.248V200.844H52.6465V211ZM58.9062 211H60.6055V200.844H58.9062V211ZM59.7559 199.135C60.3418 199.135 60.8203 198.656 60.8203 198.08C60.8203 197.494 60.3418 197.025 59.7559 197.025C59.1797 197.025 58.7012 197.494 58.7012 198.08C58.7012 198.656 59.1797 199.135 59.7559 199.135ZM66.7285 200.668C64.1211 200.668 62.4023 202.729 62.4023 205.922C62.4023 209.105 64.1211 211.176 66.6895 211.176C68.125 211.176 69.3066 210.463 69.9414 209.301H69.9805V214.389H71.6797V200.844H70.0586V202.562H70.0195C69.3652 201.391 68.2031 200.668 66.7285 200.668ZM67.0312 209.682C65.2539 209.682 64.1406 208.236 64.1406 205.922C64.1406 203.598 65.2539 202.162 67.0312 202.162C68.7695 202.162 69.9805 203.656 69.9805 205.922C69.9805 208.188 68.7695 209.682 67.0312 209.682ZM73.9844 211H75.6836V196.908H73.9844V211ZM81.3281 209.73C80.1074 209.73 79.2969 209.096 79.2969 208.129C79.2969 207.172 80.0781 206.566 81.4453 206.479L84.1602 206.312V207.143C84.1602 208.607 82.9297 209.73 81.3281 209.73ZM80.9473 211.176C82.3145 211.176 83.6035 210.414 84.209 209.252H84.248V211H85.8594V203.979C85.8594 201.957 84.3555 200.668 81.9727 200.668C79.5703 200.668 78.0664 202.016 77.9492 203.773H79.5898C79.8047 202.777 80.625 202.162 81.9336 202.162C83.3398 202.162 84.1602 202.904 84.1602 204.145V204.994L81.25 205.16C78.9062 205.297 77.5684 206.391 77.5684 208.129C77.5684 209.955 78.9258 211.176 80.9473 211.176ZM88.0176 211H89.7168V204.672C89.7168 203.236 90.5762 202.289 91.8945 202.289C92.3047 202.289 92.666 202.338 92.8027 202.387V200.736C92.666 200.717 92.4121 200.668 92.1191 200.668C90.9277 200.668 89.9902 201.381 89.6582 202.504H89.6191V200.844H88.0176V211ZM94.2773 211H95.9766V200.844H94.2773V211ZM95.127 199.135C95.7129 199.135 96.1914 198.656 96.1914 198.08C96.1914 197.494 95.7129 197.025 95.127 197.025C94.5508 197.025 94.0723 197.494 94.0723 198.08C94.0723 198.656 94.5508 199.135 95.127 199.135ZM110.703 200.844H108.936L106.123 209.193H106.084L103.281 200.844H101.494L105.234 211H106.973L110.703 200.844ZM115.195 209.73C113.975 209.73 113.164 209.096 113.164 208.129C113.164 207.172 113.945 206.566 115.312 206.479L118.027 206.312V207.143C118.027 208.607 116.797 209.73 115.195 209.73ZM114.814 211.176C116.182 211.176 117.471 210.414 118.076 209.252H118.115V211H119.727V203.979C119.727 201.957 118.223 200.668 115.84 200.668C113.438 200.668 111.934 202.016 111.816 203.773H113.457C113.672 202.777 114.492 202.162 115.801 202.162C117.207 202.162 118.027 202.904 118.027 204.145V204.994L115.117 205.16C112.773 205.297 111.436 206.391 111.436 208.129C111.436 209.955 112.793 211.176 114.814 211.176ZM125.986 211H127.686V204.633C127.686 203.227 128.662 202.172 130.01 202.172C131.27 202.172 132.09 202.973 132.09 204.193V211H133.789V204.545C133.789 203.168 134.736 202.172 136.084 202.172C137.422 202.172 138.193 202.992 138.193 204.379V211H139.893V203.988C139.893 201.977 138.594 200.668 136.582 200.668C135.156 200.668 133.965 201.391 133.398 202.602H133.359C132.92 201.371 131.895 200.668 130.508 200.668C129.141 200.668 128.105 201.391 127.627 202.465H127.588V200.844H125.986V211ZM150.4 200.844H148.701V206.811C148.701 208.539 147.705 209.672 146.055 209.672C144.482 209.672 143.711 208.783 143.711 207.133V200.844H142.012V207.436C142.012 209.74 143.311 211.176 145.527 211.176C147.09 211.176 148.145 210.521 148.75 209.35H148.789V211H150.4V200.844ZM152.607 211H154.307V204.672C154.307 203.236 155.166 202.289 156.484 202.289C156.895 202.289 157.256 202.338 157.393 202.387V200.736C157.256 200.717 157.002 200.668 156.709 200.668C155.518 200.668 154.58 201.381 154.248 202.504H154.209V200.844H152.607V211ZM161.934 209.73C160.713 209.73 159.902 209.096 159.902 208.129C159.902 207.172 160.684 206.566 162.051 206.479L164.766 206.312V207.143C164.766 208.607 163.535 209.73 161.934 209.73ZM161.553 211.176C162.92 211.176 164.209 210.414 164.814 209.252H164.854V211H166.465V203.979C166.465 201.957 164.961 200.668 162.578 200.668C160.176 200.668 158.672 202.016 158.555 203.773H160.195C160.41 202.777 161.23 202.162 162.539 202.162C163.945 202.162 164.766 202.904 164.766 204.145V204.994L161.855 205.16C159.512 205.297 158.174 206.391 158.174 208.129C158.174 209.955 159.531 211.176 161.553 211.176ZM170.41 205.355V196.908H168.711V211H170.41V207.172L171.357 206.273L175.127 211H177.1L172.559 205.229L176.963 200.844H174.902L170.41 205.355ZM180.117 205.355V196.908H178.418V211H180.117V207.172L181.064 206.273L184.834 211H186.807L182.266 205.229L186.67 200.844H184.609L180.117 205.355ZM191.387 209.73C190.166 209.73 189.355 209.096 189.355 208.129C189.355 207.172 190.137 206.566 191.504 206.479L194.219 206.312V207.143C194.219 208.607 192.988 209.73 191.387 209.73ZM191.006 211.176C192.373 211.176 193.662 210.414 194.268 209.252H194.307V211H195.918V203.979C195.918 201.957 194.414 200.668 192.031 200.668C189.629 200.668 188.125 202.016 188.008 203.773H189.648C189.863 202.777 190.684 202.162 191.992 202.162C193.398 202.162 194.219 202.904 194.219 204.145V204.994L191.309 205.16C188.965 205.297 187.627 206.391 187.627 208.129C187.627 209.955 188.984 211.176 191.006 211.176ZM203.125 211.176C205.723 211.176 207.441 209.115 207.441 205.922C207.441 202.738 205.713 200.668 203.154 200.668C201.719 200.668 200.537 201.381 199.902 202.543H199.863V196.908H198.164V211H199.785V209.281H199.824C200.479 210.453 201.641 211.176 203.125 211.176ZM202.793 202.162C204.59 202.162 205.703 203.617 205.703 205.922C205.703 208.246 204.59 209.682 202.793 209.682C201.074 209.682 199.854 208.188 199.854 205.922C199.854 203.666 201.074 202.162 202.793 202.162ZM213.818 198.393V200.844H212.305V202.24H213.818V208.363C213.818 210.316 214.541 211.078 216.406 211.078C216.807 211.078 217.275 211.049 217.48 211V209.574C217.363 209.594 216.973 209.623 216.777 209.623C215.908 209.623 215.518 209.203 215.518 208.275V202.24H217.49V200.844H215.518V198.393H213.818ZM223.223 211.176C226.025 211.176 227.92 209.154 227.92 205.922C227.92 202.68 226.025 200.668 223.223 200.668C220.41 200.668 218.516 202.68 218.516 205.922C218.516 209.154 220.41 211.176 223.223 211.176ZM223.223 209.682C221.426 209.682 220.244 208.314 220.244 205.922C220.244 203.529 221.426 202.162 223.223 202.162C225.02 202.162 226.191 203.529 226.191 205.922C226.191 208.314 225.02 209.682 223.223 209.682ZM234.57 200.668C233.096 200.668 231.914 201.42 231.289 202.562H231.25V200.844H229.639V214.389H231.338V209.35H231.377C231.982 210.463 233.154 211.176 234.609 211.176C237.168 211.176 238.916 209.105 238.916 205.922C238.916 202.738 237.158 200.668 234.57 200.668ZM234.238 209.682C232.5 209.682 231.328 208.188 231.328 205.922C231.328 203.666 232.5 202.162 234.238 202.162C236.045 202.162 237.178 203.627 237.178 205.922C237.178 208.227 236.045 209.682 234.238 209.682ZM240.459 203.646C240.459 205.033 241.338 205.951 243.125 206.41L244.912 206.869C246.055 207.172 246.475 207.562 246.475 208.285C246.475 209.203 245.625 209.789 244.248 209.789C242.871 209.789 242.07 209.223 241.885 208.168H240.186C240.361 209.965 241.914 211.176 244.141 211.176C246.514 211.176 248.184 209.926 248.184 208.158C248.184 206.664 247.441 205.922 245.391 205.404L243.818 205.023C242.666 204.73 242.129 204.262 242.129 203.559C242.129 202.67 242.949 202.055 244.189 202.055C245.439 202.055 246.23 202.66 246.348 203.637H247.969C247.891 201.918 246.348 200.668 244.248 200.668C242.012 200.668 240.459 201.908 240.459 203.646ZM250.039 211H251.738V205.082C251.738 203.324 252.783 202.172 254.473 202.172C256.064 202.172 256.875 203.139 256.875 204.75V211H258.574V204.438C258.574 202.172 257.227 200.668 255 200.668C253.457 200.668 252.344 201.332 251.777 202.465H251.738V196.908H250.039V211ZM260.82 211H262.52V200.844H260.82V211ZM261.67 199.135C262.256 199.135 262.734 198.656 262.734 198.08C262.734 197.494 262.256 197.025 261.67 197.025C261.094 197.025 260.615 197.494 260.615 198.08C260.615 198.656 261.094 199.135 261.67 199.135ZM264.814 211H266.514V204.672C266.514 203.236 267.373 202.289 268.691 202.289C269.102 202.289 269.463 202.338 269.6 202.387V200.736C269.463 200.717 269.209 200.668 268.916 200.668C267.725 200.668 266.787 201.381 266.455 202.504H266.416V200.844H264.814V211ZM271.074 211H272.773V200.844H271.074V211ZM271.924 199.135C272.51 199.135 272.988 198.656 272.988 198.08C272.988 197.494 272.51 197.025 271.924 197.025C271.348 197.025 270.869 197.494 270.869 198.08C270.869 198.656 271.348 199.135 271.924 199.135ZM278.896 200.668C276.289 200.668 274.57 202.729 274.57 205.922C274.57 209.105 276.289 211.176 278.857 211.176C280.293 211.176 281.475 210.463 282.109 209.301H282.148V214.389H283.848V200.844H282.227V202.562H282.188C281.533 201.391 280.371 200.668 278.896 200.668ZM279.199 209.682C277.422 209.682 276.309 208.236 276.309 205.922C276.309 203.598 277.422 202.162 279.199 202.162C280.938 202.162 282.148 203.656 282.148 205.922C282.148 208.188 280.938 209.682 279.199 209.682ZM286.152 211H287.852V196.908H286.152V211ZM293.496 209.73C292.275 209.73 291.465 209.096 291.465 208.129C291.465 207.172 292.246 206.566 293.613 206.479L296.328 206.312V207.143C296.328 208.607 295.098 209.73 293.496 209.73ZM293.115 211.176C294.482 211.176 295.771 210.414 296.377 209.252H296.416V211H298.027V203.979C298.027 201.957 296.523 200.668 294.141 200.668C291.738 200.668 290.234 202.016 290.117 203.773H291.758C291.973 202.777 292.793 202.162 294.102 202.162C295.508 202.162 296.328 202.904 296.328 204.145V204.994L293.418 205.16C291.074 205.297 289.736 206.391 289.736 208.129C289.736 209.955 291.094 211.176 293.115 211.176ZM300.186 211H301.885V204.672C301.885 203.236 302.744 202.289 304.062 202.289C304.473 202.289 304.834 202.338 304.971 202.387V200.736C304.834 200.717 304.58 200.668 304.287 200.668C303.096 200.668 302.158 201.381 301.826 202.504H301.787V200.844H300.186V211ZM306.357 211H308.057V205.023C308.057 203.305 309.102 202.172 310.703 202.172C312.266 202.172 313.037 203.07 313.037 204.711V211H314.736V204.408C314.736 202.104 313.447 200.668 311.221 200.668C309.648 200.668 308.564 201.371 307.998 202.465H307.959V200.844H306.357V211ZM316.992 211H318.691V200.844H316.992V211ZM317.842 199.135C318.428 199.135 318.906 198.656 318.906 198.08C318.906 197.494 318.428 197.025 317.842 197.025C317.266 197.025 316.787 197.494 316.787 198.08C316.787 198.656 317.266 199.135 317.842 199.135ZM330.137 211.176C332.734 211.176 334.453 209.115 334.453 205.922C334.453 202.738 332.725 200.668 330.166 200.668C328.73 200.668 327.549 201.381 326.914 202.543H326.875V196.908H325.176V211H326.797V209.281H326.836C327.49 210.453 328.652 211.176 330.137 211.176ZM329.805 202.162C331.602 202.162 332.715 203.617 332.715 205.922C332.715 208.246 331.602 209.682 329.805 209.682C328.086 209.682 326.865 208.188 326.865 205.922C326.865 203.666 328.086 202.162 329.805 202.162ZM339.531 209.73C338.311 209.73 337.5 209.096 337.5 208.129C337.5 207.172 338.281 206.566 339.648 206.479L342.363 206.312V207.143C342.363 208.607 341.133 209.73 339.531 209.73ZM339.15 211.176C340.518 211.176 341.807 210.414 342.412 209.252H342.451V211H344.062V203.979C344.062 201.957 342.559 200.668 340.176 200.668C337.773 200.668 336.27 202.016 336.152 203.773H337.793C338.008 202.777 338.828 202.162 340.137 202.162C341.543 202.162 342.363 202.904 342.363 204.145V204.994L339.453 205.16C337.109 205.297 335.771 206.391 335.771 208.129C335.771 209.955 337.129 211.176 339.15 211.176ZM348.008 200.844H346.309V211.518C346.309 212.65 345.908 213.07 344.805 213.07C344.795 213.07 344.561 213.07 344.541 213.07V214.486C344.561 214.496 344.834 214.496 344.863 214.496C347.031 214.496 348.008 213.559 348.008 211.498V200.844ZM347.158 199.135C347.744 199.135 348.223 198.656 348.223 198.08C348.223 197.494 347.744 197.025 347.158 197.025C346.582 197.025 346.104 197.494 346.104 198.08C346.104 198.656 346.582 199.135 347.158 199.135ZM353.652 209.73C352.432 209.73 351.621 209.096 351.621 208.129C351.621 207.172 352.402 206.566 353.77 206.479L356.484 206.312V207.143C356.484 208.607 355.254 209.73 353.652 209.73ZM353.271 211.176C354.639 211.176 355.928 210.414 356.533 209.252H356.572V211H358.184V203.979C358.184 201.957 356.68 200.668 354.297 200.668C351.895 200.668 350.391 202.016 350.273 203.773H351.914C352.129 202.777 352.949 202.162 354.258 202.162C355.664 202.162 356.484 202.904 356.484 204.145V204.994L353.574 205.16C351.23 205.297 349.893 206.391 349.893 208.129C349.893 209.955 351.25 211.176 353.271 211.176ZM360.342 211H362.041V204.672C362.041 203.236 362.9 202.289 364.219 202.289C364.629 202.289 364.99 202.338 365.127 202.387V200.736C364.99 200.717 364.736 200.668 364.443 200.668C363.252 200.668 362.314 201.381 361.982 202.504H361.943V200.844H360.342V211ZM366.602 211H368.301V200.844H366.602V211ZM367.451 199.135C368.037 199.135 368.516 198.656 368.516 198.08C368.516 197.494 368.037 197.025 367.451 197.025C366.875 197.025 366.396 197.494 366.396 198.08C366.396 198.656 366.875 199.135 367.451 199.135ZM370.596 211H372.295V205.023C372.295 203.305 373.34 202.172 374.941 202.172C376.504 202.172 377.275 203.07 377.275 204.711V211H378.975V204.408C378.975 202.104 377.686 200.668 375.459 200.668C373.887 200.668 372.803 201.371 372.236 202.465H372.197V200.844H370.596V211ZM385.273 209.584C383.525 209.584 382.383 208.158 382.383 205.883C382.383 203.607 383.525 202.162 385.273 202.162C387.041 202.162 388.223 203.646 388.223 205.883C388.223 208.119 387.041 209.584 385.273 209.584ZM385.332 214.828C388.135 214.828 389.922 213.217 389.922 210.795V200.844H388.301V202.553H388.271C387.598 201.371 386.406 200.668 384.971 200.668C382.344 200.668 380.645 202.699 380.645 205.883C380.645 209.037 382.344 211.078 384.932 211.078C386.357 211.078 387.559 210.355 388.184 209.252H388.223V210.854C388.223 212.367 387.158 213.383 385.4 213.383C384.131 213.383 383.125 212.768 382.793 211.84H381.045C381.328 213.568 383.096 214.828 385.332 214.828ZM393.574 211.098C394.199 211.098 394.688 210.609 394.688 209.984C394.688 209.359 394.199 208.871 393.574 208.871C392.949 208.871 392.461 209.359 392.461 209.984C392.461 210.609 392.949 211.098 393.574 211.098Z" fill="#343434"/>
<path opacity="0.05" d="M899.253 71.2814C758.706 -70.7117 679.296 30.5917 644.159 107.06C609.022 183.529 618.392 224.686 633.618 241.056C703.892 349.796 1074.94 248.773 899.253 71.2814Z" fill="#093845"/>
<rect x="658" y="131" width="304" height="50" rx="4" fill="white"/>
<g filter="url(#filter0_d)">
<rect x="557" y="192" width="304" height="50" rx="4" fill="white"/>
</g>
<circle cx="927" cy="146" r="3" fill="#C4C4C4"/>
<circle cx="927" cy="156" r="3" fill="#C4C4C4"/>
<circle cx="927" cy="166" r="3" fill="#C4C4C4"/>
<circle cx="826" cy="207" r="3" fill="#C4C4C4"/>
<circle cx="826" cy="217" r="3" fill="#C4C4C4"/>
<circle cx="826" cy="227" r="3" fill="#C4C4C4"/>
<path d="M737.449 163H740.105L735.105 148.908H732.264L727.264 163H729.861L731.062 159.357H736.248L737.449 163ZM733.621 151.398H733.689L735.652 157.414H731.648L733.621 151.398ZM741.375 163H743.807V156.975C743.807 155.52 744.637 154.631 746.014 154.631C746.424 154.631 746.795 154.689 747 154.768V152.57C746.824 152.531 746.551 152.473 746.238 152.473C745.018 152.473 744.109 153.195 743.758 154.455H743.709V152.648H741.375V163ZM748.25 163H750.682V156.975C750.682 155.52 751.512 154.631 752.889 154.631C753.299 154.631 753.67 154.689 753.875 154.768V152.57C753.699 152.531 753.426 152.473 753.113 152.473C751.893 152.473 750.984 153.195 750.633 154.455H750.584V152.648H748.25V163ZM758.67 161.33C757.615 161.33 756.912 160.793 756.912 159.943C756.912 159.123 757.586 158.596 758.758 158.518L761.15 158.371V159.162C761.15 160.412 760.047 161.33 758.67 161.33ZM757.938 163.166C759.266 163.166 760.564 162.473 761.16 161.35H761.209V163H763.553V155.871C763.553 153.791 761.883 152.434 759.314 152.434C756.678 152.434 755.027 153.82 754.92 155.754H757.176C757.332 154.895 758.064 154.338 759.217 154.338C760.418 154.338 761.15 154.963 761.15 156.047V156.789L758.416 156.945C755.896 157.102 754.48 158.205 754.48 160.041C754.48 161.906 755.936 163.166 757.938 163.166ZM766.629 166.848C768.992 166.848 770.135 165.979 771.023 163.41L774.764 152.648H772.205L769.764 160.93H769.725L767.283 152.648H764.627L768.309 163.01C768.318 163.039 768.172 163.557 768.172 163.586C767.898 164.543 767.381 164.924 766.375 164.924C766.229 164.924 765.799 164.914 765.672 164.885V166.809C765.799 166.838 766.492 166.848 766.629 166.848Z" fill="#343434"/>
<path d="M627.156 220.871H620.76V208.908H618.24V223H627.156V220.871ZM633.104 223.205C636.141 223.205 638.113 221.184 638.113 217.824C638.113 214.475 636.121 212.434 633.104 212.434C630.086 212.434 628.094 214.484 628.094 217.824C628.094 221.184 630.066 223.205 633.104 223.205ZM633.104 221.281C631.561 221.281 630.564 220.031 630.564 217.824C630.564 215.627 631.57 214.367 633.104 214.367C634.646 214.367 635.643 215.627 635.643 217.824C635.643 220.031 634.646 221.281 633.104 221.281ZM644.246 221.076C642.713 221.076 641.736 219.846 641.736 217.795C641.736 215.764 642.713 214.475 644.246 214.475C645.799 214.475 646.805 215.783 646.805 217.795C646.805 219.816 645.799 221.076 644.246 221.076ZM644.236 226.906C647.254 226.906 649.236 225.305 649.236 222.834V212.648H646.854V214.426H646.814C646.219 213.234 645.027 212.473 643.553 212.473C640.906 212.473 639.246 214.514 639.246 217.785C639.246 221.008 640.945 223.01 643.504 223.01C644.988 223.01 646.209 222.268 646.746 221.154H646.805V222.902C646.805 224.221 645.896 225.109 644.314 225.109C643.162 225.109 642.273 224.572 642.01 223.781H639.598C639.842 225.598 641.678 226.906 644.236 226.906ZM651.277 223H653.709V212.648H651.277V223ZM652.488 211.291C653.25 211.291 653.846 210.705 653.846 209.973C653.846 209.23 653.25 208.645 652.488 208.645C651.736 208.645 651.141 209.23 651.141 209.973C651.141 210.705 651.736 211.291 652.488 211.291ZM664.871 216.34C664.705 214.162 663.016 212.434 660.281 212.434C657.273 212.434 655.32 214.514 655.32 217.824C655.32 221.184 657.273 223.205 660.301 223.205C662.898 223.205 664.686 221.682 664.881 219.367H662.586C662.361 220.539 661.561 221.242 660.33 221.242C658.787 221.242 657.791 219.992 657.791 217.824C657.791 215.695 658.777 214.406 660.311 214.406C661.609 214.406 662.381 215.236 662.576 216.34H664.871Z" fill="#343434"/>
<g filter="url(#filter1_d)">
<rect x="617" y="68" width="304" height="50" rx="4" fill="white"/>
</g>
<circle cx="886" cy="83" r="3" fill="#C4C4C4"/>
<circle cx="886" cy="93" r="3" fill="#C4C4C4"/>
<circle cx="886" cy="103" r="3" fill="#C4C4C4"/>
<path d="M677.664 96.0352C677.771 98.6328 679.9 100.234 683.143 100.234C686.551 100.234 688.699 98.5547 688.699 95.8789C688.699 93.7793 687.488 92.5977 684.627 91.9434L683.006 91.5723C681.277 91.1621 680.564 90.6152 680.564 89.6777C680.564 88.5059 681.639 87.7246 683.23 87.7246C684.842 87.7246 685.945 88.5156 686.062 89.834H688.465C688.406 87.3535 686.355 85.6738 683.25 85.6738C680.184 85.6738 678.006 87.3633 678.006 89.8633C678.006 91.875 679.236 93.125 681.834 93.7207L683.66 94.1504C685.438 94.5703 686.16 95.1562 686.16 96.1719C686.16 97.3438 684.979 98.1836 683.279 98.1836C681.561 98.1836 680.262 97.334 680.105 96.0352H677.664ZM691.033 87.2266V89.6484H689.549V91.5234H691.033V97.2461C691.033 99.2578 691.912 100.049 694.148 100.049C694.666 100.049 695.145 100.01 695.408 99.9512V98.0957C695.252 98.125 694.939 98.1445 694.715 98.1445C693.855 98.1445 693.465 97.7539 693.465 96.9043V91.5234H695.418V89.6484H693.465V87.2266H691.033ZM697.078 100H699.51V93.9746C699.51 92.5195 700.34 91.6309 701.717 91.6309C702.127 91.6309 702.498 91.6895 702.703 91.7676V89.5703C702.527 89.5312 702.254 89.4727 701.941 89.4727C700.721 89.4727 699.812 90.1953 699.461 91.4551H699.412V89.6484H697.078V100ZM704.012 100H706.443V89.6484H704.012V100ZM705.223 88.291C705.984 88.291 706.58 87.7051 706.58 86.9727C706.58 86.2305 705.984 85.6445 705.223 85.6445C704.471 85.6445 703.875 86.2305 703.875 86.9727C703.875 87.7051 704.471 88.291 705.223 88.291ZM708.484 100H710.916V94.0039C710.916 92.5195 711.805 91.5137 713.201 91.5137C714.588 91.5137 715.271 92.334 715.271 93.7988V100H717.703V93.3105C717.703 90.918 716.404 89.4531 714.119 89.4531C712.527 89.4531 711.424 90.1953 710.867 91.4258H710.818V89.6484H708.484V100ZM724.227 98.0762C722.693 98.0762 721.717 96.8457 721.717 94.7949C721.717 92.7637 722.693 91.4746 724.227 91.4746C725.779 91.4746 726.785 92.7832 726.785 94.7949C726.785 96.8164 725.779 98.0762 724.227 98.0762ZM724.217 103.906C727.234 103.906 729.217 102.305 729.217 99.834V89.6484H726.834V91.4258H726.795C726.199 90.2344 725.008 89.4727 723.533 89.4727C720.887 89.4727 719.227 91.5137 719.227 94.7852C719.227 98.0078 720.926 100.01 723.484 100.01C724.969 100.01 726.189 99.2676 726.727 98.1543H726.785V99.9023C726.785 101.221 725.877 102.109 724.295 102.109C723.143 102.109 722.254 101.572 721.99 100.781H719.578C719.822 102.598 721.658 103.906 724.217 103.906Z" fill="#343434"/>
<path d="M649 83C643.486 83 639 87.4858 639 93C639 98.5142 643.486 103 649 103C654.514 103 659 98.5142 659 93C659 87.4858 654.514 83 649 83ZM654.575 89.665L648.421 96.5881C648.27 96.7585 648.058 96.8462 647.846 96.8462C647.677 96.8462 647.507 96.7908 647.365 96.6777L643.519 93.6008C643.188 93.3358 643.134 92.8515 643.399 92.5196C643.664 92.1877 644.149 92.1338 644.48 92.3992L647.756 95.0196L653.425 88.6423C653.707 88.3246 654.193 88.2962 654.511 88.5785C654.828 88.8612 654.857 89.3473 654.575 89.665Z" fill="#1DD1A1"/>
<path d="M589 207C583.486 207 579 211.486 579 217C579 222.514 583.486 227 589 227C594.514 227 599 222.514 599 217C599 211.486 594.514 207 589 207ZM594.575 213.665L588.421 220.588C588.27 220.758 588.058 220.846 587.846 220.846C587.677 220.846 587.507 220.791 587.365 220.678L583.519 217.601C583.188 217.336 583.134 216.852 583.399 216.52C583.664 216.188 584.149 216.134 584.48 216.399L587.756 219.02L593.425 212.642C593.707 212.325 594.193 212.296 594.511 212.578C594.828 212.861 594.857 213.347 594.575 213.665Z" fill="#1DD1A1"/>
<g clip-path="url(#clip0)">
<path d="M699.824 162.643L691.049 148.091C690.828 147.724 690.429 147.499 690 147.499C689.57 147.499 689.172 147.724 688.951 148.091L680.176 162.643C679.948 163.022 679.941 163.494 680.158 163.879C680.376 164.263 680.783 164.501 681.225 164.501H698.775C699.217 164.501 699.624 164.263 699.842 163.879C700.059 163.494 700.052 163.022 699.824 162.643ZM690.007 152.532C690.51 152.532 690.937 152.817 690.937 153.321C690.937 154.858 690.756 157.068 690.756 158.605C690.756 159.006 690.317 159.174 690.007 159.174C689.593 159.174 689.244 159.006 689.244 158.605C689.244 157.068 689.063 154.858 689.063 153.321C689.063 152.817 689.477 152.532 690.007 152.532ZM690.019 162.055C689.451 162.055 689.024 161.59 689.024 161.061C689.024 160.518 689.451 160.066 690.019 160.066C690.549 160.066 691.001 160.518 691.001 161.061C691.001 161.59 690.549 162.055 690.019 162.055Z" fill="#FB4767"/>
</g>
<defs>
<filter id="filter0_d" x="517" y="182" width="384" height="130" filterUnits="userSpaceOnUse" color-interpolation-filters="sRGB">
<feFlood flood-opacity="0" result="BackgroundImageFix"/>
<feColorMatrix in="SourceAlpha" type="matrix" values="0 0 0 0 0 0 0 0 0 0 0 0 0 0 0 0 0 0 127 0"/>
<feOffset dy="30"/>
<feGaussianBlur stdDeviation="20"/>
<feColorMatrix type="matrix" values="0 0 0 0 0.78375 0 0 0 0 0.833512 0 0 0 0 0.870833 0 0 0 0.74 0"/>
<feBlend mode="normal" in2="BackgroundImageFix" result="effect1_dropShadow"/>
<feBlend mode="normal" in="SourceGraphic" in2="effect1_dropShadow" result="shape"/>
</filter>
<filter id="filter1_d" x="577" y="58" width="384" height="130" filterUnits="userSpaceOnUse" color-interpolation-filters="sRGB">
<feFlood flood-opacity="0" result="BackgroundImageFix"/>
<feColorMatrix in="SourceAlpha" type="matrix" values="0 0 0 0 0 0 0 0 0 0 0 0 0 0 0 0 0 0 127 0"/>
<feOffset dy="30"/>
<feGaussianBlur stdDeviation="20"/>
<feColorMatrix type="matrix" values="0 0 0 0 0.78375 0 0 0 0 0.833512 0 0 0 0 0.870833 0 0 0 0.74 0"/>
<feBlend mode="normal" in2="BackgroundImageFix" result="effect1_dropShadow"/>
<feBlend mode="normal" in="SourceGraphic" in2="effect1_dropShadow" result="shape"/>
</filter>
<clipPath id="clip0">
<rect width="20" height="20" fill="white" transform="translate(680 146)"/>
</clipPath>
</defs>
</svg>
